
{
  "title": {
    "text": "big complexity | g++ "
  },
  "xAxis": {
    "title": {
      "text": "Number of bindings"
    },
    "floor": 0
  },

  "yAxis": {
    "title": {
      "text": "Time [s]"
    },
    "floor": 0
  },
  "series": [
    {
      "name": "ctor/auto",
      "data": [[0, 4.68089], [20, 4.6289], [40, 4.53996], [60, 4.53733], [80, 6.01252], [100, 6.3129], [120, 6.16755], [140, 6.64056], [160, 6.47241], [180, 6.19696], [200, 6.93807]]
    },
    {
      "name": "inject/all",
      "data": [[0, 3.4314], [20, 3.52464], [40, 3.5079], [60, 5.52044], [80, 3.97595], [100, 4.31715], [120, 4.66195], [140, 4.9378], [160, 5.70026], [180, 6.16488], [200, 7.79741]]
    },
    {
      "name": "ctor/exposed",
      "data": [[0, 6.34692], [20, 5.62529], [40, 5.7434], [60, 7.66471], [80, 8.3268], [100, 7.58369], [120, 9.83579], [140, 11.885], [160, 12.3556], [180, 13.736], [200, 14.9088]]
    },
    {
      "name": "inject/exposed",
      "data": [[0, 3.727], [20, 4.526], [40, 4.69883], [60, 6.30447], [80, 5.39739], [100, 5.44259], [120, 6.71658], [140, 9.16999], [160, 8.38054], [180, 8.85174], [200, 10.2805]]
    }
  ]
}
