
{
  "title": {
    "text": "quick complexity | clang++-3.8 "
  },
  "xAxis": {
    "title": {
      "text": "Number of bindings"
    },
    "floor": 0
  },

  "yAxis": {
    "title": {
      "text": "Time [s]"
    },
    "floor": 0
  },
  "series": [
    {
      "name": "ctor/auto",
      "data": [[10, 1.83086]]
    },
    {
      "name": "inject/all",
      "data": [[10, 1.27495]]
    },
    {
      "name": "ctor/exposed",
      "data": [[10, 2.15222]]
    },
    {
      "name": "inject/exposed",
      "data": [[10, 1.41004]]
    }
  ]
}
