
{
  "title": {
    "text": "small complexity | clang++-3.5 "
  },
  "xAxis": {
    "title": {
      "text": "Number of bindings"
    },
    "floor": 0
  },

  "yAxis": {
    "title": {
      "text": "Time [s]"
    },
    "floor": 0
  },
  "series": [
    {
      "name": "ctor/auto",
      "data": [[0, 3.48903], [10, 3.24784], [20, 3.2572], [30, 3.53999], [40, 3.34975], [50, 3.46856], [60, 3.67026], [70, 3.49309], [80, 3.54585], [90, 3.52473], [100, 3.56466]]
    },
    {
      "name": "inject/all",
      "data": [[0, 1.4432], [10, 1.51658], [20, 1.56669], [30, 1.67394], [40, 1.6959], [50, 1.72364], [60, 1.73082], [70, 1.81454], [80, 1.84792], [90, 1.87572], [100, 1.95314]]
    },
    {
      "name": "ctor/exposed",
      "data": [[0, 3.23792], [10, 3.32124], [20, 3.75758], [30, 4.41612], [40, 5.15678], [50, 6.17039], [60, 7.33896], [70, 8.64494], [80, 10.2966], [90, 12.2994], [100, 13.5893]]
    },
    {
      "name": "inject/exposed",
      "data": [[0, 1.40665], [10, 1.5414], [20, 1.71972], [30, 2.00326], [40, 2.21796], [50, 2.71259], [60, 2.96325], [70, 3.43356], [80, 4.02732], [90, 4.39886], [100, 4.56637]]
    }
  ]
}
