
{
  "title": {
    "text": "small complexity | clang++ "
  },
  "xAxis": {
    "title": {
      "text": "Number of bindings"
    },
    "floor": 0
  },

  "yAxis": {
    "title": {
      "text": "Time [s]"
    },
    "floor": 0
  },
  "series": [
    {
      "name": "ctor/auto",
      "data": [[0, 1.84616], [10, 1.8205], [20, 1.91492], [30, 1.85055], [40, 2.05647], [50, 1.96465], [60, 2.06852], [70, 2.04941], [80, 2.15533], [90, 2.29642], [100, 2.34969]]
    },
    {
      "name": "inject/all",
      "data": [[0, 1.38157], [10, 1.46938], [20, 1.41429], [30, 1.34852], [40, 1.42747], [50, 1.57949], [60, 1.63615], [70, 1.85141], [80, 1.7827], [90, 1.87437], [100, 1.99679]]
    },
    {
      "name": "ctor/exposed",
      "data": [[0, 1.86042], [10, 2.05774], [20, 2.42079], [30, 3.05655], [40, 3.48639], [50, 4.53574], [60, 5.50208], [70, 7.45095], [80, 9.78668], [90, 10.9569], [100, 11.2997]]
    },
    {
      "name": "inject/exposed",
      "data": [[0, 1.33455], [10, 1.52921], [20, 1.70874], [30, 1.91199], [40, 2.16913], [50, 2.56909], [60, 3.07729], [70, 3.69933], [80, 4.05771], [90, 5.11677], [100, 4.70666]]
    }
  ]
}
